…
## 向前边的数据添加变量
flights2 %>% 
  left_join(airlines)
```

```
## Joining, by = "carrier"
```

```
## # A tibble: 336,776 x 9
##     year month   day  hour origin dest  tailnum carrier name 
##    <int> <int> <int> <dbl> <chr>  <chr> <chr>   <chr>   <chr>
##  1  2013     1     1     5 EWR    IAH   N14228  UA      Unit~
##  2  2013     1     1     5 LGA    IAH   N24211  UA      Unit~
##  3  2013     1     1     5 JFK    MIA   N619AA  AA      Amer~
##  4  2013     1     1     5 JFK    BQN   N804JB  B6      JetB~
##  5  2013     1     1     6 LGA    ATL   N668DN  DL      Delt~
##  6  2013     1     1     5 EWR    ORD   N39463  UA      Unit~
##  7  2013     1     1     6 EWR    FLL   N516JB  B6      JetB~
##  8  2013     1     1     6 LGA    IAD   N829AS  EV      Expr~
##  9  2013     1     1     6 JFK    MCO   N593JB  B6      JetB~
## 10  2013     1     1     6 LGA    ORD   N3ALAA  AA      Amer~
## # ... with 336,766 more rows
```
### join变量参照  

在进行join操作时，选取变量作为参照，对数据进行合并，在默认情况下时`NULL`，意思为根据所有变量进行合并  


```r
flights2 %>% left_join(weather)
```

```
## Joining, by = c("year", "month", "day", "hour", "origin")
```

```
## # A tibble: 336,776 x 18
##     year month   day  hour origin dest  tailnum carrier  temp
##    <int> <int> <int> <dbl> <chr>  <chr> <chr>   <chr>   <dbl>
##  1  2013     1     1     5 EWR    IAH   N14228  UA       39.0
##  2  2013     1     1     5 LGA    IAH   N24211  UA       39.9
##  3  2013     1     1     5 JFK    MIA   N619AA  AA       39.0
##  4  2013     1     1     5 JFK    BQN   N804JB  B6       39.0
##  5  2013     1     1     6 LGA    ATL   N668DN  DL       39.9
##  6  2013     1     1     5 EWR    ORD   N39463  UA       39.0
##  7  2013     1     1     6 EWR    FLL   N516JB  B6       37.9
##  8  2013     1     1     6 LGA    IAD   N829AS  EV       39.9
##  9  2013     1     1     6 JFK    MCO   N593JB  B6       37.9
## 10  2013     1     1     6 LGA    ORD   N3ALAA  AA       39.9
## # ... with 336,766 more rows, and 9 more variables:
## #   dewp <dbl>, humid <dbl>, wind_dir <dbl>,
## #   wind_speed <dbl>, wind_gust <dbl>, precip <dbl>,
## #   pressure <dbl>, visib <dbl>, time_hour <dttm>
```

同样，也可以设定特殊的列作为参考进行数据合并  


```r
flights2 %>% left_join(planes, by = "tailnum")
```

```
## # A tibble: 336,776 x 16
##    year.x month   day  hour origin dest  tailnum carrier
##     <int> <int> <int> <dbl> <chr>  <chr> <chr>   <chr>  
##  1   2013     1     1     5 EWR    IAH   N14228  UA     
##  2   2013     1     1     5 LGA    IAH   N24211  UA     
##  3   2013     1     1     5 JFK    MIA   N619AA  AA     
##  4   2013     1     1     5 JFK    BQN   N804JB  B6     
##  5   2013     1     1     6 LGA    ATL   N668DN  DL     
##  6   2013     1     1     5 EWR    ORD   N39463  UA     
##  7   2013     1     1     6 EWR    FLL   N516JB  B6     
##  8   2013     1     1     6 LGA    IAD   N829AS  EV     
##  9   2013     1     1     6 JFK    MCO   N593JB  B6     
## 10   2013     1     1     6 LGA    ORD   N3ALAA  AA     
## # ... with 336,766 more rows, and 8 more variables:
## #   year.y <int>, type <chr>, manufacturer <chr>,
## #   model <chr>, engines <int>, seats <int>, speed <int>,
## #   engine <chr>
```

当在两个数据中，需要参考的变量的名称不一样怎么办？使用`by = c("x" = "a")`进行操作  


```r
flights2 %>% left_join(airports, c("dest" = "faa"))
```

```
## # A tibble: 336,776 x 15
##     year month   day  hour origin dest  tailnum carrier name 
##    <int> <int> <int> <dbl> <chr>  <chr> <chr>   <chr>   <chr>
##  1  2013     1     1     5 EWR    IAH   N14228  UA      Geor~
##  2  2013     1     1     5 LGA    IAH   N24211  UA      Geor~
##  3  2013     1     1     5 JFK    MIA   N619AA  AA      Miam~
##  4  2013     1     1     5 JFK    BQN   N804JB  B6      <NA> 
##  5  2013     1     1     6 LGA    ATL   N668DN  DL      Hart~
##  6  2013     1     1     5 EWR    ORD   N39463  UA      Chic~
##  7  2013     1     1     6 EWR    FLL   N516JB  B6      Fort~
##  8  2013     1     1     6 LGA    IAD   N829AS  EV      Wash~
##  9  2013     1     1     6 JFK    MCO   N593JB  B6      Orla~
## 10  2013     1     1     6 LGA    ORD   N3ALAA  AA      Chic~
## # ... with 336,766 more rows, and 6 more variables:
## #   lat <dbl>, lon <dbl>, alt <dbl>, tz <dbl>, dst <chr>,
## #   tzone <chr>
```
…
