dplyr学习笔记(一) | Mooner
…
7
8
9
10
11
12
13
14
15
16
17
18
19

## # A tibble: 336,776 x 19
##     year month   day dep_time sched_dep_time dep_delay
##    <int> <int> <int>    <int>          <int>     <dbl>
##  1  2013     1     1      517            515         2
##  2  2013     1     1      533            529         4
##  3  2013     1     1      542            540         2
##  4  2013     1     1      544            545        -1
##  5  2013     1     1      554            600        -6
##  6  2013     1     1      554            558        -4
##  7  2013     1     1      555            600        -5
##  8  2013     1     1      557            600        -3
##  9  2013     1     1      557            600        -3
## 10  2013     1     1      558            600        -2
## # ... with 336,766 more rows, and 13 more variables:
## #   arr_time <int>, sched_arr_time <int>, arr_delay <dbl>,
## #   carrier <chr>, flight <int>, tailnum <chr>,
## #   origin <chr>, dest <chr>, air_time <dbl>,
## #   distance <dbl>, hour <dbl>, minute <dbl>,
## #   time_hour <dttm>
…
7
8
9
10
11
12
13
14
15
16
17
18
19

## # A tibble: 842 x 19
##     year month   day dep_time sched_dep_time dep_delay
##    <int> <int> <int>    <int>          <int>     <dbl>
##  1  2013     1     1      517            515         2
##  2  2013     1     1      533            529         4
##  3  2013     1     1      542            540         2
##  4  2013     1     1      544            545        -1
##  5  2013     1     1      554            600        -6
##  6  2013     1     1      554            558        -4
##  7  2013     1     1      555            600        -5
##  8  2013     1     1      557            600        -3
##  9  2013     1     1      557            600        -3
## 10  2013     1     1      558            600        -2
## # ... with 832 more rows, and 13 more variables:
## #   arr_time <int>, sched_arr_time <int>, arr_delay <dbl>,
## #   carrier <chr>, flight <int>, tailnum <chr>,
## #   origin <chr>, dest <chr>, air_time <dbl>,
## #   distance <dbl>, hour <dbl>, minute <dbl>,
## #   time_hour <dttm>
…
7
8
9
10
11
12
13
14
15
16
17
18
19

## # A tibble: 336,776 x 19
##     year month   day dep_time sched_dep_time dep_delay
##    <int> <int> <int>    <int>          <int>     <dbl>
##  1  2013     1     1      517            515         2
##  2  2013     1     1      533            529         4
##  3  2013     1     1      542            540         2
##  4  2013     1     1      544            545        -1
##  5  2013     1     1      554            600        -6
##  6  2013     1     1      554            558        -4
##  7  2013     1     1      555            600        -5
##  8  2013     1     1      557            600        -3
##  9  2013     1     1      557            600        -3
## 10  2013     1     1      558            600        -2
## # ... with 336,766 more rows, and 13 more variables:
## #   arr_time <int>, sched_arr_time <int>, arr_delay <dbl>,
## #   carrier <chr>, flight <int>, tailnum <chr>,
## #   origin <chr>, dest <chr>, air_time <dbl>,
## #   distance <dbl>, hour <dbl>, minute <dbl>,
## #   time_hour <dttm>
…
7
8
9
10
11
12
13
14
15
16
17
18
19

## # A tibble: 336,776 x 19
##     year month   day dep_time sched_dep_time dep_delay
##    <int> <int> <int>    <int>          <int>     <dbl>
##  1  2013     1     9      641            900      1301
##  2  2013     6    15     1432           1935      1137
##  3  2013     1    10     1121           1635      1126
##  4  2013     9    20     1139           1845      1014
##  5  2013     7    22      845           1600      1005
##  6  2013     4    10     1100           1900       960
##  7  2013     3    17     2321            810       911
##  8  2013     7    22     2257            759       898
##  9  2013    12     5      756           1700       896
## 10  2013     5     3     1133           2055       878
## # ... with 336,766 more rows, and 13 more variables:
## #   arr_time <int>, sched_arr_time <int>, arr_delay <dbl>,
## #   carrier <chr>, flight <int>, tailnum <chr>,
## #   origin <chr>, dest <chr>, air_time <dbl>,
## #   distance <dbl>, hour <dbl>, minute <dbl>,
## #   time_hour <dttm>
…
2
3
4
5
6
7
8
9
10
11
12
13
14

## # A tibble: 336,776 x 3
##     year month   day
##    <int> <int> <int>
##  1  2013     1     1
##  2  2013     1     1
##  3  2013     1     1
##  4  2013     1     1
##  5  2013     1     1
##  6  2013     1     1
##  7  2013     1     1
##  8  2013     1     1
##  9  2013     1     1
## 10  2013     1     1
## # ... with 336,766 more rows
…
2
3
4
5
6
7
8
9
10
11
12
13
14

## # A tibble: 336,776 x 3
##     year month   day
##    <int> <int> <int>
##  1  2013     1     1
##  2  2013     1     1
##  3  2013     1     1
##  4  2013     1     1
##  5  2013     1     1
##  6  2013     1     1
##  7  2013     1     1
##  8  2013     1     1
##  9  2013     1     1
## 10  2013     1     1
## # ... with 336,766 more rows
…
6
7
8
9
10
11
12
13
14
15
16
17
18

## # A tibble: 336,776 x 16
##    dep_time sched_dep_time dep_delay arr_time sched_arr_time
##       <int>          <int>     <dbl>    <int>          <int>
##  1      517            515         2      830            819
##  2      533            529         4      850            830
##  3      542            540         2      923            850
##  4      544            545        -1     1004           1022
##  5      554            600        -6      812            837
##  6      554            558        -4      740            728
##  7      555            600        -5      913            854
##  8      557            600        -3      709            723
##  9      557            600        -3      838            846
## 10      558            600        -2      753            745
## # ... with 336,766 more rows, and 11 more variables:
## #   arr_delay <dbl>, carrier <chr>, flight <int>,
## #   tailnum <chr>, origin <chr>, dest <chr>, air_time <dbl>,
## #   distance <dbl>, hour <dbl>, minute <dbl>,
## #   time_hour <dttm>
…
2
3
4
5
6
7
8
9
10
11
12
13
14

## # A tibble: 336,776 x 1
##    tail_num
##    <chr>   
##  1 N14228  
##  2 N24211  
##  3 N619AA  
##  4 N804JB  
##  5 N668DN  
##  6 N39463  
##  7 N516JB  
##  8 N829AS  
##  9 N593JB  
## 10 N3ALAA  
## # ... with 336,766 more rows
…
7
8
9
10
11
12
13
14
15
16
17
18
19

## # A tibble: 336,776 x 21
##     year month   day dep_time sched_dep_time dep_delay
##    <int> <int> <int>    <int>          <int>     <dbl>
##  1  2013     1     1      517            515         2
##  2  2013     1     1      533            529         4
##  3  2013     1     1      542            540         2
##  4  2013     1     1      544            545        -1
##  5  2013     1     1      554            600        -6
##  6  2013     1     1      554            558        -4
##  7  2013     1     1      555            600        -5
##  8  2013     1     1      557            600        -3
##  9  2013     1     1      557            600        -3
## 10  2013     1     1      558            600        -2
## # ... with 336,766 more rows, and 15 more variables:
## #   arr_time <int>, sched_arr_time <int>, arr_delay <dbl>,
## #   carrier <chr>, flight <int>, tailnum <chr>,
## #   origin <chr>, dest <chr>, air_time <dbl>,
## #   distance <dbl>, hour <dbl>, minute <dbl>,
## #   time_hour <dttm>, gain <dbl>, speed <dbl>
…
7
8
9
10
11
12
13
14
15
16
17
18
19

## # A tibble: 336,776 x 21
##     year month   day dep_time sched_dep_time dep_delay
##    <int> <int> <int>    <int>          <int>     <dbl>
##  1  2013     1     1      517            515         2
##  2  2013     1     1      533            529         4
##  3  2013     1     1      542            540         2
##  4  2013     1     1      544            545        -1
##  5  2013     1     1      554            600        -6
##  6  2013     1     1      554            558        -4
##  7  2013     1     1      555            600        -5
##  8  2013     1     1      557            600        -3
##  9  2013     1     1      557            600        -3
## 10  2013     1     1      558            600        -2
## # ... with 336,766 more rows, and 15 more variables:
## #   arr_time <int>, sched_arr_time <int>, arr_delay <dbl>,
## #   carrier <chr>, flight <int>, tailnum <chr>,
## #   origin <chr>, dest <chr>, air_time <dbl>,
## #   distance <dbl>, hour <dbl>, minute <dbl>,
## #   time_hour <dttm>, gain <dbl>, gain_per_hour <dbl>
…
2
3
4
5
6
7
8
9
10
11
12
13
14

## # A tibble: 336,776 x 2
##     gain gain_per_hour
##    <dbl>         <dbl>
##  1     9          2.38
##  2    16          4.23
##  3    31         11.6 
##  4   -17         -5.57
##  5   -19         -9.83
##  6    16          6.4 
##  7    24          9.11
##  8   -11        -12.5 
##  9    -5         -2.14
## 10    10          4.35
## # ... with 336,766 more rows
…
7
8
9
10
11
12
13
14
15
16
17
18
19

## # A tibble: 3,368 x 19
##     year month   day dep_time sched_dep_time dep_delay
##    <int> <int> <int>    <int>          <int>     <dbl>
##  1  2013     4     2      812            815        -3
##  2  2013     8     6      542            545        -3
##  3  2013     2     6      608            610        -2
##  4  2013    10     5     1138           1145        -7
##  5  2013     6    14     1515           1455        20
##  6  2013     7    17      608            609        -1
##  7  2013    10     2     1214           1223        -9
##  8  2013     6     9     1739           1629        70
##  9  2013     6    13      651            700        -9
## 10  2013    10     1     2026           2029        -3
## # ... with 3,358 more rows, and 13 more variables:
## #   arr_time <int>, sched_arr_time <int>, arr_delay <dbl>,
## #   carrier <chr>, flight <int>, tailnum <chr>,
## #   origin <chr>, dest <chr>, air_time <dbl>,
## #   distance <dbl>, hour <dbl>, minute <dbl>,
## #   time_hour <dttm>
…
