…
#>  2     2 <int [10]>
#>  3     3 <int [20]>
tribble(
~x, ~y,
"a", 1:3,
"b", 4:6
)
#> A tibble: 2 x 2
#>   x     y    
#>   <chr> <list>   
#> 1 a     <int [3]>
#> 2 b     <int [3]>
l <- list(x = 1:500, y = runif(500), z = 500:1)
df <- as_tibble(l)
#>  A tibble: 500 x 3
#>        x     y     z
#>    <int> <dbl> <int>
#>  1     1 0.311   500
#>  2     2 0.512   499
#>  3     3 0.440   498
#>  4     4 0.501   497
#>  5     5 0.131   496
#>  6     6 0.566   495
#>  7     7 0.647   494
#>  8     8 0.200   493
#>  9     9 0.121   492
#> 10    10 0.315   491
#> # ... with 490 more rows
```

### tibble和data.frame的区别

#### print结果

`tibble`默认只展示前10行的信息

```r
tibble(x = -5:1000)
#> # A tibble: 1,006 x 1
#>        x
#>    <int>
#>  1    -5
#>  2    -4
#>  3    -3
#>  4    -2
#>  5    -1
#>  6     0
#>  7     1
#>  8     2
#>  9     3
#> 10     4
#> # … with 996 more rows
```
…
