…
## 数据拓展

### complete

`complete`和 `expand`都会创建出一个包含所有组合的tibble，只是两者得到的结果是不一样的

```r
> complete(mtcars, cyl, gear, carb)
# A tibble: 74 x 12
     cyl  gear  carb car        mpg  disp    hp  drat    wt  qsec    vs    am
   <dbl> <dbl> <dbl> <chr>    <dbl> <dbl> <dbl> <dbl> <dbl> <dbl> <dbl> <dbl>
 1     4     3     1 Toyota ~  21.5 120.     97  3.7   2.46  20.0     1     0
 2     4     3     2 NA        NA    NA      NA NA    NA     NA      NA    NA
 3     4     3     3 NA        NA    NA      NA NA    NA     NA      NA    NA
 4     4     3     4 NA        NA    NA      NA NA    NA     NA      NA    NA
 5     4     3     6 NA        NA    NA      NA NA    NA     NA      NA    NA
 6     4     3     8 NA        NA    NA      NA NA    NA     NA      NA    NA
 7     4     4     1 Datsun ~  22.8 108      93  3.85  2.32  18.6     1     1
 8     4     4     1 Fiat 128  32.4  78.7    66  4.08  2.2   19.5     1     1
 9     4     4     1 Toyota ~  33.9  71.1    65  4.22  1.84  19.9     1     1
10     4     4     1 Fiat X1~  27.3  79      66  4.08  1.94  18.9     1     1
# ... with 64 more rows
> expand(mtcars, cyl, gear, carb)
# A tibble: 54 x 3
     cyl  gear  carb
   <dbl> <dbl> <dbl>
 1     4     3     1
 2     4     3     2
 3     4     3     3
 4     4     3     4
 5     4     3     6
 6     4     3     8
 7     4     4     1
 8     4     4     2
 9     4     4     3
10     4     4     4
# ... with 44 more rows
```
…
